<session jtag_chain="USB-Blaster [USB-0]" jtag_device="@1: 10M50DA(.|ES)/10M50DC (0x031050DD)" sof_file="../fifo_accumulate.sof">
  <display_tree gui_logging_enabled="0">
    <display_branch instance="auto_signaltap_0" log="USE_GLOBAL_TEMP" signal_set="USE_GLOBAL_TEMP" trigger="USE_GLOBAL_TEMP"/>
  </display_tree>
  <instance enabled="true" entity_name="sld_signaltap" is_auto_node="yes" is_expanded="true" name="auto_signaltap_0" source_file="sld_signaltap.vhd">
    <node_ip_info instance_id="0" mfg_id="110" node_id="0" version="6"/>
    <signal_set global_temp="1" is_expanded="true" name="signal_set: 2018/10/27 15:59:06  #0">
      <clock name="MAX10_CLK1_50" polarity="posedge" tap_mode="classic"/>
      <config pipeline_level="2" ram_type="AUTO" reserved_data_nodes="0" reserved_storage_qualifier_nodes="0" reserved_trigger_nodes="0" sample_depth="1024" trigger_in_enable="no" trigger_out_enable="no"/>
      <top_entity/>
      <signal_vec>
        <trigger_input_vec>
          <wire name="accumFsm:my_accumFsm|USED_W[0]" tap_mode="classic"/>
          <wire name="accumFsm:my_accumFsm|USED_W[1]" tap_mode="classic"/>
          <wire name="accumFsm:my_accumFsm|USED_W[2]" tap_mode="classic"/>
          <wire name="accumFsm:my_accumFsm|USED_W[3]" tap_mode="classic"/>
          <wire name="fifo:my_fifo|rdclk" tap_mode="classic"/>
          <wire name="fifo:my_fifo|rdempty" tap_mode="classic"/>
          <wire name="fifo:my_fifo|rdreq" tap_mode="classic"/>
          <wire name="fifo:my_fifo|wrclk" tap_mode="classic"/>
          <wire name="fifo:my_fifo|wrfull" tap_mode="classic"/>
          <wire name="fifo:my_fifo|wrreq" tap_mode="classic"/>
        </trigger_input_vec>
        <data_input_vec>
          <wire name="accumFsm:my_accumFsm|USED_W[0]" tap_mode="classic"/>
          <wire name="accumFsm:my_accumFsm|USED_W[1]" tap_mode="classic"/>
          <wire name="accumFsm:my_accumFsm|USED_W[2]" tap_mode="classic"/>
          <wire name="accumFsm:my_accumFsm|USED_W[3]" tap_mode="classic"/>
          <wire name="fifo:my_fifo|rdclk" tap_mode="classic"/>
          <wire name="fifo:my_fifo|rdempty" tap_mode="classic"/>
          <wire name="fifo:my_fifo|rdreq" tap_mode="classic"/>
          <wire name="fifo:my_fifo|wrclk" tap_mode="classic"/>
          <wire name="fifo:my_fifo|wrfull" tap_mode="classic"/>
          <wire name="fifo:my_fifo|wrreq" tap_mode="classic"/>
        </data_input_vec>
        <storage_qualifier_input_vec>
          <wire name="accumFsm:my_accumFsm|USED_W[0]" tap_mode="classic"/>
          <wire name="accumFsm:my_accumFsm|USED_W[1]" tap_mode="classic"/>
          <wire name="accumFsm:my_accumFsm|USED_W[2]" tap_mode="classic"/>
          <wire name="accumFsm:my_accumFsm|USED_W[3]" tap_mode="classic"/>
          <wire name="fifo:my_fifo|rdclk" tap_mode="classic"/>
          <wire name="fifo:my_fifo|rdempty" tap_mode="classic"/>
          <wire name="fifo:my_fifo|rdreq" tap_mode="classic"/>
          <wire name="fifo:my_fifo|wrclk" tap_mode="classic"/>
          <wire name="fifo:my_fifo|wrfull" tap_mode="classic"/>
          <wire name="fifo:my_fifo|wrreq" tap_mode="classic"/>
        </storage_qualifier_input_vec>
      </signal_vec>
      <presentation>
        <unified_setup_data_view>
          <node is_selected="false" level-0="alt_or" name="accumFsm:my_accumFsm|USED_W[3..0]" order="msb_to_lsb" state="collapse" type="combinatorial">
            <node data_index="3" duplicate_name_allowed="false" is_data_input="true" is_node_valid="true" is_selected="false" is_storage_input="true" is_trigger_input="true" level-0="dont_care" name="accumFsm:my_accumFsm|USED_W[3]" storage_index="3" tap_mode="classic" trigger_index="3" type="unknown"/>
            <node data_index="2" duplicate_name_allowed="false" is_data_input="true" is_node_valid="true" is_selected="false" is_storage_input="true" is_trigger_input="true" name="accumFsm:my_accumFsm|USED_W[2]" storage_index="2" tap_mode="classic" trigger_index="2" type="unknown"/>
            <node data_index="1" duplicate_name_allowed="false" is_data_input="true" is_node_valid="true" is_selected="false" is_storage_input="true" is_trigger_input="true" name="accumFsm:my_accumFsm|USED_W[1]" storage_index="1" tap_mode="classic" trigger_index="1" type="unknown"/>
            <node data_index="0" duplicate_name_allowed="false" is_data_input="true" is_node_valid="true" is_selected="false" is_storage_input="true" is_trigger_input="true" level-0="dont_care" name="accumFsm:my_accumFsm|USED_W[0]" storage_index="0" tap_mode="classic" trigger_index="0" type="unknown"/>
          </node>
          <node data_index="4" duplicate_name_allowed="false" is_data_input="true" is_node_valid="true" is_selected="false" is_storage_input="true" is_trigger_input="true" name="fifo:my_fifo|rdclk" storage_index="4" tap_mode="classic" trigger_index="4" type="unknown"/>
          <node data_index="5" duplicate_name_allowed="false" is_data_input="true" is_node_valid="true" is_selected="false" is_storage_input="true" is_trigger_input="true" name="fifo:my_fifo|rdempty" storage_index="5" tap_mode="classic" trigger_index="5" type="unknown"/>
          <node data_index="6" duplicate_name_allowed="false" is_data_input="true" is_node_valid="true" is_selected="false" is_storage_input="true" is_trigger_input="true" name="fifo:my_fifo|rdreq" storage_index="6" tap_mode="classic" trigger_index="6" type="unknown"/>
          <node data_index="7" duplicate_name_allowed="false" is_data_input="true" is_node_valid="true" is_selected="false" is_storage_input="true" is_trigger_input="true" name="fifo:my_fifo|wrclk" storage_index="7" tap_mode="classic" trigger_index="7" type="unknown"/>
          <node data_index="8" duplicate_name_allowed="false" is_data_input="true" is_node_valid="true" is_selected="false" is_storage_input="true" is_trigger_input="true" name="fifo:my_fifo|wrfull" storage_index="8" tap_mode="classic" trigger_index="8" type="unknown"/>
          <node data_index="9" duplicate_name_allowed="false" is_data_input="true" is_node_valid="true" is_selected="false" is_storage_input="true" is_trigger_input="true" level-0="rising edge" name="fifo:my_fifo|wrreq" storage_index="9" tap_mode="classic" trigger_index="9" type="unknown"/>
        </unified_setup_data_view>
        <data_view>
          <bus is_selected="false" level-0="alt_or" name="accumFsm:my_accumFsm|USED_W[3..0]" order="msb_to_lsb" state="collapse" type="combinatorial">
            <net data_index="3" duplicate_name_allowed="false" is_data_input="true" is_node_valid="true" is_selected="false" is_storage_input="true" is_trigger_input="true" level-0="dont_care" name="accumFsm:my_accumFsm|USED_W[3]" storage_index="3" tap_mode="classic" trigger_index="3" type="unknown"/>
            <net data_index="2" duplicate_name_allowed="false" is_data_input="true" is_node_valid="true" is_selected="false" is_storage_input="true" is_trigger_input="true" name="accumFsm:my_accumFsm|USED_W[2]" storage_index="2" tap_mode="classic" trigger_index="2" type="unknown"/>
            <net data_index="1" duplicate_name_allowed="false" is_data_input="true" is_node_valid="true" is_selected="false" is_storage_input="true" is_trigger_input="true" name="accumFsm:my_accumFsm|USED_W[1]" storage_index="1" tap_mode="classic" trigger_index="1" type="unknown"/>
            <net data_index="0" duplicate_name_allowed="false" is_data_input="true" is_node_valid="true" is_selected="false" is_storage_input="true" is_trigger_input="true" level-0="dont_care" name="accumFsm:my_accumFsm|USED_W[0]" storage_index="0" tap_mode="classic" trigger_index="0" type="unknown"/>
          </bus>
          <net data_index="4" duplicate_name_allowed="false" is_data_input="true" is_node_valid="true" is_selected="false" is_storage_input="true" is_trigger_input="true" name="fifo:my_fifo|rdclk" storage_index="4" tap_mode="classic" trigger_index="4" type="unknown"/>
          <net data_index="5" duplicate_name_allowed="false" is_data_input="true" is_node_valid="true" is_selected="false" is_storage_input="true" is_trigger_input="true" name="fifo:my_fifo|rdempty" storage_index="5" tap_mode="classic" trigger_index="5" type="unknown"/>
          <net data_index="6" duplicate_name_allowed="false" is_data_input="true" is_node_valid="true" is_selected="false" is_storage_input="true" is_trigger_input="true" name="fifo:my_fifo|rdreq" storage_index="6" tap_mode="classic" trigger_index="6" type="unknown"/>
          <net data_index="7" duplicate_name_allowed="false" is_data_input="true" is_node_valid="true" is_selected="false" is_storage_input="true" is_trigger_input="true" name="fifo:my_fifo|wrclk" storage_index="7" tap_mode="classic" trigger_index="7" type="unknown"/>
          <net data_index="8" duplicate_name_allowed="false" is_data_input="true" is_node_valid="true" is_selected="false" is_storage_input="true" is_trigger_input="true" name="fifo:my_fifo|wrfull" storage_index="8" tap_mode="classic" trigger_index="8" type="unknown"/>
          <net data_index="9" duplicate_name_allowed="false" is_data_input="true" is_node_valid="true" is_selected="false" is_storage_input="true" is_trigger_input="true" level-0="rising edge" name="fifo:my_fifo|wrreq" storage_index="9" tap_mode="classic" trigger_index="9" type="unknown"/>
        </data_view>
        <setup_view>
          <bus is_selected="false" level-0="alt_or" name="accumFsm:my_accumFsm|USED_W[3..0]" order="msb_to_lsb" state="collapse" type="combinatorial">
            <net data_index="3" duplicate_name_allowed="false" is_data_input="true" is_node_valid="true" is_selected="false" is_storage_input="true" is_trigger_input="true" level-0="dont_care" name="accumFsm:my_accumFsm|USED_W[3]" storage_index="3" tap_mode="classic" trigger_index="3" type="unknown"/>
            <net data_index="2" duplicate_name_allowed="false" is_data_input="true" is_node_valid="true" is_selected="false" is_storage_input="true" is_trigger_input="true" name="accumFsm:my_accumFsm|USED_W[2]" storage_index="2" tap_mode="classic" trigger_index="2" type="unknown"/>
            <net data_index="1" duplicate_name_allowed="false" is_data_input="true" is_node_valid="true" is_selected="false" is_storage_input="true" is_trigger_input="true" name="accumFsm:my_accumFsm|USED_W[1]" storage_index="1" tap_mode="classic" trigger_index="1" type="unknown"/>
            <net data_index="0" duplicate_name_allowed="false" is_data_input="true" is_node_valid="true" is_selected="false" is_storage_input="true" is_trigger_input="true" level-0="dont_care" name="accumFsm:my_accumFsm|USED_W[0]" storage_index="0" tap_mode="classic" trigger_index="0" type="unknown"/>
          </bus>
          <net data_index="4" duplicate_name_allowed="false" is_data_input="true" is_node_valid="true" is_selected="false" is_storage_input="true" is_trigger_input="true" name="fifo:my_fifo|rdclk" storage_index="4" tap_mode="classic" trigger_index="4" type="unknown"/>
          <net data_index="5" duplicate_name_allowed="false" is_data_input="true" is_node_valid="true" is_selected="false" is_storage_input="true" is_trigger_input="true" name="fifo:my_fifo|rdempty" storage_index="5" tap_mode="classic" trigger_index="5" type="unknown"/>
          <net data_index="6" duplicate_name_allowed="false" is_data_input="true" is_node_valid="true" is_selected="false" is_storage_input="true" is_trigger_input="true" name="fifo:my_fifo|rdreq" storage_index="6" tap_mode="classic" trigger_index="6" type="unknown"/>
          <net data_index="7" duplicate_name_allowed="false" is_data_input="true" is_node_valid="true" is_selected="false" is_storage_input="true" is_trigger_input="true" name="fifo:my_fifo|wrclk" storage_index="7" tap_mode="classic" trigger_index="7" type="unknown"/>
          <net data_index="8" duplicate_name_allowed="false" is_data_input="true" is_node_valid="true" is_selected="false" is_storage_input="true" is_trigger_input="true" name="fifo:my_fifo|wrfull" storage_index="8" tap_mode="classic" trigger_index="8" type="unknown"/>
          <net data_index="9" duplicate_name_allowed="false" is_data_input="true" is_node_valid="true" is_selected="false" is_storage_input="true" is_trigger_input="true" level-0="rising edge" name="fifo:my_fifo|wrreq" storage_index="9" tap_mode="classic" trigger_index="9" type="unknown"/>
        </setup_view>
        <trigger_in_editor/>
        <trigger_out_editor/>
      </presentation>
      <trigger CRC="FDCC191A" attribute_mem_mode="false" gap_record="true" global_temp="1" is_expanded="true" name="trigger: 2018/10/27 15:59:06  #1" position="pre" power_up_trigger_mode="false" record_data_gap="true" segment_size="1024" storage_mode="off" storage_qualifier_disabled="no" storage_qualifier_port_is_pin="false" storage_qualifier_port_name="auto_stp_external_storage_qualifier" storage_qualifier_port_tap_mode="classic" trigger_type="circular">
        <power_up_trigger position="pre" storage_qualifier_disabled="no"/>
        <events use_custom_flow_control="no">
          <level enabled="yes" name="condition1" type="basic">'fifo:my_fifo|wrreq' == rising edge
            <power_up enabled="yes">
            </power_up><op_node/>
          </level>
        </events>
        <storage_qualifier_events>
          <transitional>1111111111
            <pwr_up_transitional>1111111111</pwr_up_transitional>
          </transitional>
          <storage_qualifier_level type="basic">
            <power_up>
            </power_up>
            <op_node/>
          </storage_qualifier_level>
          <storage_qualifier_level type="basic">
            <power_up>
            </power_up>
            <op_node/>
          </storage_qualifier_level>
          <storage_qualifier_level type="basic">
            <power_up>
            </power_up>
            <op_node/>
          </storage_qualifier_level>
        </storage_qualifier_events>
      </trigger>
    </signal_set>
    <position_info>
      <single attribute="active tab" value="0"/>
      <single attribute="data horizontal scroll position" value="0"/>
      <single attribute="data vertical scroll position" value="1"/>
      <single attribute="setup horizontal scroll position" value="0"/>
      <single attribute="setup vertical scroll position" value="2"/>
      <single attribute="zoom level denominator" value="1"/>
      <single attribute="zoom level numerator" value="1"/>
      <single attribute="zoom offset denominator" value="1"/>
      <single attribute="zoom offset numerator" value="130048"/>
    </position_info>
  </instance>
  <mnemonics/>
  <static_plugin_mnemonics/>
  <global_info>
    <single attribute="active instance" value="0"/>
    <single attribute="config widget visible" value="1"/>
    <single attribute="data log widget visible" value="1"/>
    <single attribute="hierarchy widget height" value="141"/>
    <single attribute="hierarchy widget visible" value="1"/>
    <single attribute="instance widget visible" value="1"/>
    <single attribute="jtag widget visible" value="1"/>
    <single attribute="lock mode" value="2"/>
    <multi attribute="column width" size="23" value="34,34,313,74,68,78,95,96,98,98,88,88,110,101,101,101,101,101,101,101,101,107,78"/>
    <multi attribute="frame size" size="2" value="1366,705"/>
    <multi attribute="jtag widget size" size="2" value="419,135"/>
  </global_info>
</session>
